<svg
    width="128"
    height="128"
    version="1.1"
    viewBox="0 0 1024 1024"
    xmlns="http://www.w3.org/2000/svg"
    xmlns:xlink="http://www.w3.org/1999/xlink"
>
    <path d="M177.92 573.65333333l285.86666667 294.61333334c12.37333333 12.8 29.22666667 19.19999999 47.78666666 19.2l0.85333334 0c18.56 0 35.41333333-6.4 47.78666666-19.2l285.86666667-294.61333334c26.66666667-25.6 26.66666666-66.77333333 0-92.15999999-26.66666667-25.38666667-69.76-25.38666667-96.42666667 0l-169.38666666 177.06666666 1e-8-456.53333333c0-36.05333333-30.50666667-65.28-68.26666668-65.28-38.4 0-68.26666668 29.22666667-68.26666668 65.28l1e-8 456.53333333-169.38666666-177.06666666c-26.66666667-25.38666667-69.76-25.38666667-96.42666667 0s-26.66666667 66.56 0 92.15999999z"/>
</svg>
