<svg
    width="128"
    height="128"
    version="1.1"
    viewBox="0 0 1024 1024"
    xmlns="http://www.w3.org/2000/svg"
    xmlns:xlink="http://www.w3.org/1999/xlink"
>
    <path d="M251.66897446 182.24736763l338.43033322 338.43033321L251.66897446 859.1080341a83.91452423 83.91452423 0 0 0 0 121.48781189 83.91452423 83.91452423 0 0 0 121.48781191 0L772.33102554 581.42160684a83.91452423 83.91452423 0 0 0 0-121.48781195L373.15678637 60.7595557a85.90923843 85.90923843 0 1 0-121.48781191 121.48781193z"/>
</svg>
