<svg class="icon" viewBox="0 0 1024 1024" version="1.1" xmlns="http://www.w3.org/2000/svg" xmlns:xlink="http://www.w3.org/1999/xlink" width="128" height="128">
    <path d="M512 0a512 512 0 1 0 512 512A512 512 0 0 0 512 0z m0 930.909091a418.909091 418.909091 0 1 1 418.909091-418.909091 418.909091 418.909091 0 0 1-418.909091 418.909091z m172.544-312.180364a46.545455 46.545455 0 0 1-65.815273 65.815273l-139.636363-139.636364A46.545455 46.545455 0 0 1 465.454545 512V232.727273a46.545455 46.545455 0 0 1 93.09091 0v260.002909z"/>
</svg>
