<svg xmlns="http://www.w3.org/2000/svg" width="128" height="128" class="icon" viewBox="0 0 1024 1024">
    <path d="M910.2 767.6H113.8C50.9 767.6 0 716.7 0 653.9V198.7C0 135.9 50.9 85 113.8 85h796.4c62.9 0 113.8 50.9 113.8 113.8v455.1c0 62.8-50.9 113.7-113.8 113.7zm56.9-573.2c0-31.4-25.5-56.9-56.9-56.9H113.8c-31.4 0-56.9 25.5-56.9 56.9v463.9c0 31.4 25.5 56.9 56.9 56.9h796.4c31.4 0 56.9-25.5 56.9-56.9V194.4zM160.3 881.1h225.6c-15-.9-27-13-27-28.2 0-15.7 12.7-28.4 28.4-28.4h249.4c15.7 0 28.4 12.7 28.4 28.4 0 15.2-11.9 27.3-27 28.2h225.6c5.8 0 14.6 6.6 19.7 15.1l26.1 42.8h-795l26.1-42.8c5.1-8.5 13.9-15.1 19.7-15.1z"/>
</svg>
