<svg class="icon" viewBox="0 0 1024 1024" version="1.1" xmlns="http://www.w3.org/2000/svg" xmlns:xlink="http://www.w3.org/1999/xlink" width="128" height="128">
    <path d="M973.81454219 973.81454219a91.78207815 91.78207815 0 0 1-129.80999631 0l-161.97482118-161.97482118a425.48527711 425.48527711 0 0 1-230.35931791 68.16531768 428.3346319 428.3346319 0 1 1 428.3346319-428.3346319 425.48527711 425.48527711 0 0 1-68.16531768 230.35931791l162.02961656 161.97482118a91.83687354 91.83687354 0 0 1-0.05479538 129.80999631zM451.67040679 145.69361559a305.97679241 305.97679241 0 1 0 0 611.95358361 305.97679241 305.97679241 0 0 0 0-611.95358361z"/>
</svg>
